D:\Mes projets\5data-final-exam\src\main\java\com\application\Application.java
D:\Mes projets\5data-final-exam\src\main\java\com\application\services\EtudiantService.java
D:\Mes projets\5data-final-exam\src\main\java\com\application\controller\Controller.java
D:\Mes projets\5data-final-exam\src\main\java\com\application\configuration\Config.java
